verilog work "FullAdder.v"
verilog work "RippleAdderSubtracter.v"
verilog work "RippleAdder.v"
verilog work "CSA.v"
verilog work "WallaceTreeAdder.v"
verilog work "pp_generator.v"
verilog work "mantissa_product.v"
verilog work "mantisa_round.v"
verilog work "exponent_bias.v"
verilog work "multiplier_pipeline.v"
verilog work "corner_case.v"
verilog work "clk_counter.v"
verilog work "ClkDivider.v"
verilog work "FloatingPointMultiplier.v"
